time: 24ms
1:0 1:1 1:2 C   2:1 2:0 2:1 2:2 2:3 
1:1 1:2 4:2 4:1 C   2:1 2:2 2:3 2:4 
1:2 4:2 4:1 4:0 4:1 C   C   C   C   
1:3 4:3 4:2 4:1 5:1 5:2 5:3 5:4 6:4 
C   5:3 5:2 5:1 5:0 5:1 5:2 5:3 6:3 
3:4 3:3 3:2 5:2 5:1 5:2 5:3 6:3 6:2 
3:3 3:2 3:1 3:2 5:2 5:3 6:3 6:2 6:1 
3:2 3:1 3:0 3:1 3:2 C   6:2 6:1 6:0 
